<?xml version="1.0" standalone="no"?>
<!DOCTYPE svg PUBLIC "-//W3C//DTD SVG 20010904//EN"
 "http://www.w3.org/TR/2001/REC-SVG-20010904/DTD/svg10.dtd">
<svg version="1.0" xmlns="http://www.w3.org/2000/svg"
 width="261.000000pt" height="261.000000pt" viewBox="0 0 261.000000 261.000000"
 preserveAspectRatio="xMidYMid meet">
<metadata>
Created by potrace 1.11, written by Peter Selinger 2001-2013
</metadata>
<g transform="translate(0.000000,261.000000) scale(0.100000,-0.100000)"
fill="#000000" stroke="none">
<path d="M480 2274 c-93 -25 -160 -65 -240 -144 -177 -175 -215 -422 -97 -644
54 -101 121 -158 367 -310 243 -149 278 -181 306 -273 37 -120 -35 -270 -154
-320 -49 -21 -135 -24 -182 -8 -22 8 -91 45 -153 83 l-113 70 -71 -118 -71
-118 98 -61 c186 -116 261 -143 390 -140 154 2 276 53 381 158 205 205 213
532 18 746 -57 61 -79 77 -314 220 -198 121 -234 150 -265 211 -34 67 -35 179
-2 241 44 85 132 142 224 147 72 4 105 -7 201 -66 118 -73 148 -89 158 -86 10
4 139 206 139 218 0 11 -199 136 -259 162 -105 47 -253 60 -361 32z"/>
<path d="M1990 2287 c-3 -3 -21 -7 -40 -10 -53 -7 -131 -40 -186 -78 -278
-190 -321 -587 -89 -824 44 -45 119 -98 280 -198 121 -75 232 -149 247 -164
65 -68 89 -193 54 -278 -54 -127 -195 -200 -317 -162 -26 8 -96 44 -157 81
-60 36 -114 66 -118 66 -8 0 -50 -66 -123 -191 l-21 -36 102 -65 c184 -114
245 -136 386 -136 467 -1 710 543 402 899 -37 44 -149 127 -235 175 -46 25
-213 129 -253 156 -143 98 -165 288 -49 411 61 63 131 86 248 79 14 -1 85 -38
157 -81 l131 -80 72 116 c39 63 67 118 63 123 -26 24 -248 150 -299 169 -56
22 -242 42 -255 28z"/>
</g>
</svg>
